group05_lab06_part03/group05_lab06_part03/cpu_wavedata.vcd
$date
	Wed Mar  9 00:37:57 2022
$end
$version
	Icarus Verilog
$end
$timescale
	100ps
$end
$scope module cpu_tb $end
$var wire 32 ! mem_writedata [31:0] $end
$var wire 1 " mem_write $end
$var wire 128 # mem_readinstr [127:0] $end
$var wire 32 $ mem_readdata [31:0] $end
$var wire 1 % mem_read $end
$var wire 1 & mem_busywait $end
$var wire 6 ' mem_address [5:0] $end
$var wire 1 ( instrmem_read $end
$var wire 6 ) instrmem_address [5:0] $end
$var wire 1 * instr_mem_busywait $end
$var wire 8 + WRITEDATA [7:0] $end
$var wire 1 , WRITE $end
$var wire 8 - READDATA [7:0] $end
$var wire 1 . READ $end
$var wire 32 / PC [31:0] $end
$var wire 32 0 INSTRUCTION [31:0] $end
$var wire 1 1 INSTRMEM_BUSYWAIT $end
$var wire 1 2 BUSYWAIT $end
$var wire 8 3 ADDRESS [7:0] $end
$var reg 1 4 CLK $end
$var reg 1 5 RESET $end
$scope module my_cache_memory $end
$var wire 1 4 clock $end
$var wire 1 5 reset $end
$var wire 8 6 writedata [7:0] $end
$var wire 1 , write $end
$var wire 1 7 valid_bit $end
$var wire 3 8 tag [2:0] $end
$var wire 1 . read $end
$var wire 32 9 mem_readdata [31:0] $end
$var wire 1 & mem_busywait $end
$var wire 3 : index [2:0] $end
$var wire 1 ; hit $end
$var wire 1 < dirty $end
$var wire 8 = address [7:0] $end
$var reg 1 2 busywait $end
$var reg 6 > mem_address [5:0] $end
$var reg 1 % mem_read $end
$var reg 1 " mem_write $end
$var reg 32 ? mem_writedata [31:0] $end
$var reg 3 @ next_state [2:0] $end
$var reg 8 A readdata [7:0] $end
$var reg 3 B state [2:0] $end
$var reg 8 C word_selector [7:0] $end
$var integer 32 D i [31:0] $end
$upscope $end
$scope module my_memory $end
$var wire 6 E address [5:0] $end
$var wire 1 4 clock $end
$var wire 1 % read $end
$var wire 1 5 reset $end
$var wire 1 " write $end
$var wire 32 F writedata [31:0] $end
$var reg 1 & busywait $end
$var reg 1 G readaccess $end
$var reg 32 H readdata [31:0] $end
$var reg 1 I writeaccess $end
$var integer 32 J i [31:0] $end
$upscope $end
$scope module mycpu $end
$var wire 8 K ADDRESS [7:0] $end
$var wire 1 2 BUSYWAIT $end
$var wire 1 4 CLK $end
$var wire 8 L READDATA [7:0] $end
$var wire 1 5 RESET $end
$var wire 8 M WRITEDATA [7:0] $end
$var wire 8 N offset [7:0] $end
$var wire 8 O mux2_OUTPUT [7:0] $end
$var wire 8 P mux1_OUTPUT [7:0] $end
$var wire 1 Q ZERO $end
$var wire 3 R WRITEREG [2:0] $end
$var wire 1 S WRITEENABLE $end
$var wire 1 , WRITE $end
$var wire 8 T REGOUT2_2scomp [7:0] $end
$var wire 8 U REGOUT2 [7:0] $end
$var wire 8 V REGOUT1 [7:0] $end
$var wire 3 W READREG2 [2:0] $end
$var wire 3 X READREG1 [2:0] $end
$var wire 1 . READ $end
$var wire 32 Y PC_val [31:0] $end
$var wire 32 Z PC_target [31:0] $end
$var wire 3 [ PC_select [2:0] $end
$var wire 32 \ PC_next [31:0] $end
$var wire 32 ] PC [31:0] $end
$var wire 8 ^ OPCODE [7:0] $end
$var wire 1 _ MUX2_select $end
$var wire 1 ` MUX1_select $end
$var wire 1 a MEM_MUX_SELECT $end
$var wire 8 b MEM_MUX_OUTPUT [7:0] $end
$var wire 32 c INSTRUCTION [31:0] $end
$var wire 1 1 INSTRMEM_BUSYWAIT $end
$var wire 8 d IMMEDIATE [7:0] $end
$var wire 1 e ALUShift $end
$var wire 8 f ALURESULT [7:0] $end
$var wire 3 g ALUOP [2:0] $end
$scope module memory_mux $end
$var wire 8 h INPUT1 [7:0] $end
$var wire 1 a SELECT $end
$var wire 8 i INPUT2 [7:0] $end
$var reg 8 j OUTPUT [7:0] $end
$upscope $end
$scope module myPC $end
$var wire 1 4 CLK $end
$var wire 1 5 RESET $end
$var wire 32 k PC_next [31:0] $end
$var reg 32 l PC [31:0] $end
$upscope $end
$scope module my_ALU $end
$var wire 8 m Sll_wire [7:0] $end
$var wire 3 n SELECT [2:0] $end
$var wire 8 o RESULT [7:0] $end
$var wire 8 p OR_wire [7:0] $end
$var wire 8 q FORWARD_wire [7:0] $end
$var wire 8 r DATA2 [7:0] $end
$var wire 8 s DATA1 [7:0] $end
$var wire 8 t AND_wire [7:0] $end
$var wire 1 e ALUShift $end
$var wire 8 u ADD_wire [7:0] $end
$var reg 1 Q ZERO $end
$scope module f1 $end
$var wire 8 v RESULT [7:0] $end
$var wire 8 w DATA2 [7:0] $end
$upscope $end
$scope module f2 $end
$var wire 8 x RESULT [7:0] $end
$var wire 8 y DATA2 [7:0] $end
$var wire 8 z DATA1 [7:0] $end
$upscope $end
$scope module f3 $end
$var wire 8 { RESULT [7:0] $end
$var wire 8 | DATA2 [7:0] $end
$var wire 8 } DATA1 [7:0] $end
$upscope $end
$scope module f4 $end
$var wire 8 ~ RESULT [7:0] $end
$var wire 8 !" DATA2 [7:0] $end
$var wire 8 "" DATA1 [7:0] $end
$upscope $end
$scope module f5 $end
$var wire 8 #" srl_wire [7:0] $end
$var wire 8 $" sll_wire [7:0] $end
$var wire 8 %" Shift_Amount [7:0] $end
$var wire 1 e SelectOP $end
$var wire 8 &" Result [7:0] $end
$var wire 8 '" OPsrl2 [7:0] $end
$var wire 8 (" OPsrl1 [7:0] $end
$var wire 8 )" OPsll2 [7:0] $end
$var wire 8 *" OPsll1 [7:0] $end
$var wire 8 +" In [7:0] $end
$var reg 8 ," allResult [7:0] $end
$scope module choosing_00 $end
$var wire 1 -" DATA1 $end
$var wire 1 ." DATA1_wire $end
$var wire 1 /" DATA2 $end
$var wire 1 0" DATA2_wire $end
$var wire 1 1" Result $end
$var wire 1 2" Select_negate $end
$var wire 1 e Selection $end
$upscope $end
$scope module choosing_01 $end
$var wire 1 3" DATA1 $end
$var wire 1 4" DATA1_wire $end
$var wire 1 5" DATA2 $end
$var wire 1 6" DATA2_wire $end
$var wire 1 7" Result $end
$var wire 1 8" Select_negate $end
$var wire 1 e Selection $end
$upscope $end
$scope module choosing_02 $end
$var wire 1 9" DATA1 $end
$var wire 1 :" DATA1_wire $end
$var wire 1 ;" DATA2 $end
$var wire 1 <" DATA2_wire $end
$var wire 1 =" Result $end
$var wire 1 >" Select_negate $end
$var wire 1 e Selection $end
$upscope $end
$scope module choosing_03 $end
$var wire 1 ?" DATA1 $end
$var wire 1 @" DATA1_wire $end
$var wire 1 A" DATA2 $end
$var wire 1 B" DATA2_wire $end
$var wire 1 C" Result $end
$var wire 1 D" Select_negate $end
$var wire 1 e Selection $end
$upscope $end
$scope module choosing_04 $end
$var wire 1 E" DATA1 $end
$var wire 1 F" DATA1_wire $end
$var wire 1 G" DATA2 $end
$var wire 1 H" DATA2_wire $end
$var wire 1 I" Result $end
$var wire 1 J" Select_negate $end
$var wire 1 e Selection $end
$upscope $end
$scope module choosing_05 $end
$var wire 1 K" DATA1 $end
$var wire 1 L" DATA1_wire $end
$var wire 1 M" DATA2 $end
$var wire 1 N" DATA2_wire $end
$var wire 1 O" Result $end
$var wire 1 P" Select_negate $end
$var wire 1 e Selection $end
$upscope $end
$scope module choosing_06 $end
$var wire 1 Q" DATA1 $end
$var wire 1 R" DATA1_wire $end
$var wire 1 S" DATA2 $end
$var wire 1 T" DATA2_wire $end
$var wire 1 U" Result $end
$var wire 1 V" Select_negate $end
$var wire 1 e Selection $end
$upscope $end
$scope module choosing_07 $end
$var wire 1 W" DATA1 $end
$var wire 1 X" DATA1_wire $end
$var wire 1 Y" DATA2 $end
$var wire 1 Z" DATA2_wire $end
$var wire 1 [" Result $end
$var wire 1 \" Select_negate $end
$var wire 1 e Selection $end
$upscope $end
$scope module sll_00 $end
$var wire 1 ]" DATA1 $end
$var wire 1 ^" DATA1_wire $end
$var wire 1 _" DATA2 $end
$var wire 1 `" DATA2_wire $end
$var wire 1 a" Result $end
$var wire 1 b" Select_negate $end
$var wire 1 c" Selection $end
$upscope $end
$scope module sll_01 $end
$var wire 1 d" DATA1 $end
$var wire 1 e" DATA1_wire $end
$var wire 1 f" DATA2 $end
$var wire 1 g" DATA2_wire $end
$var wire 1 h" Result $end
$var wire 1 i" Select_negate $end
$var wire 1 j" Selection $end
$upscope $end
$scope module sll_02 $end
$var wire 1 k" DATA1 $end
$var wire 1 l" DATA1_wire $end
$var wire 1 m" DATA2 $end
$var wire 1 n" DATA2_wire $end
$var wire 1 o" Result $end
$var wire 1 p" Select_negate $end
$var wire 1 q" Selection $end
$upscope $end
$scope module sll_03 $end
$var wire 1 r" DATA1 $end
$var wire 1 s" DATA1_wire $end
$var wire 1 t" DATA2 $end
$var wire 1 u" DATA2_wire $end
$var wire 1 v" Result $end
$var wire 1 w" Select_negate $end
$var wire 1 x" Selection $end
$upscope $end
$scope module sll_04 $end
$var wire 1 y" DATA1 $end
$var wire 1 z" DATA1_wire $end
$var wire 1 {" DATA2 $end
$var wire 1 |" DATA2_wire $end
$var wire 1 }" Result $end
$var wire 1 ~" Select_negate $end
$var wire 1 !# Selection $end
$upscope $end
$scope module sll_05 $end
$var wire 1 "# DATA1 $end
$var wire 1 ## DATA1_wire $end
$var wire 1 $# DATA2 $end
$var wire 1 %# DATA2_wire $end
$var wire 1 &# Result $end
$var wire 1 '# Select_negate $end
$var wire 1 (# Selection $end
$upscope $end
$scope module sll_06 $end
$var wire 1 )# DATA1 $end
$var wire 1 *# DATA1_wire $end
$var wire 1 +# DATA2 $end
$var wire 1 ,# DATA2_wire $end
$var wire 1 -# Result $end
$var wire 1 .# Select_negate $end
$var wire 1 /# Selection $end
$upscope $end
$scope module sll_07 $end
$var wire 1 0# DATA1 $end
$var wire 1 1# DATA1_wire $end
$var wire 1 2# DATA2 $end
$var wire 1 3# DATA2_wire $end
$var wire 1 4# Result $end
$var wire 1 5# Select_negate $end
$var wire 1 6# Selection $end
$upscope $end
$scope module sll_10 $end
$var wire 1 7# DATA1 $end
$var wire 1 8# DATA1_wire $end
$var wire 1 9# DATA2 $end
$var wire 1 :# DATA2_wire $end
$var wire 1 ;# Result $end
$var wire 1 <# Select_negate $end
$var wire 1 =# Selection $end
$upscope $end
$scope module sll_11 $end
$var wire 1 ># DATA1 $end
$var wire 1 ?# DATA1_wire $end
$var wire 1 @# DATA2 $end
$var wire 1 A# DATA2_wire $end
$var wire 1 B# Result $end
$var wire 1 C# Select_negate $end
$var wire 1 D# Selection $end
$upscope $end
$scope module sll_12 $end
$var wire 1 E# DATA1 $end
$var wire 1 F# DATA1_wire $end
$var wire 1 G# DATA2 $end
$var wire 1 H# DATA2_wire $end
$var wire 1 I# Result $end
$var wire 1 J# Select_negate $end
$var wire 1 K# Selection $end
$upscope $end
$scope module sll_13 $end
$var wire 1 L# DATA1 $end
$var wire 1 M# DATA1_wire $end
$var wire 1 N# DATA2 $end
$var wire 1 O# DATA2_wire $end
$var wire 1 P# Result $end
$var wire 1 Q# Select_negate $end
$var wire 1 R# Selection $end
$upscope $end
$scope module sll_14 $end
$var wire 1 S# DATA1 $end
$var wire 1 T# DATA1_wire $end
$var wire 1 U# DATA2 $end
$var wire 1 V# DATA2_wire $end
$var wire 1 W# Result $end
$var wire 1 X# Select_negate $end
$var wire 1 Y# Selection $end
$upscope $end
$scope module sll_15 $end
$var wire 1 Z# DATA1 $end
$var wire 1 [# DATA1_wire $end
$var wire 1 \# DATA2 $end
$var wire 1 ]# DATA2_wire $end
$var wire 1 ^# Result $end
$var wire 1 _# Select_negate $end
$var wire 1 `# Selection $end
$upscope $end
$scope module sll_16 $end
$var wire 1 a# DATA1 $end
$var wire 1 b# DATA1_wire $end
$var wire 1 c# DATA2 $end
$var wire 1 d# DATA2_wire $end
$var wire 1 e# Result $end
$var wire 1 f# Select_negate $end
$var wire 1 g# Selection $end
$upscope $end
$scope module sll_17 $end
$var wire 1 h# DATA1 $end
$var wire 1 i# DATA1_wire $end
$var wire 1 j# DATA2 $end
$var wire 1 k# DATA2_wire $end
$var wire 1 l# Result $end
$var wire 1 m# Select_negate $end
$var wire 1 n# Selection $end
$upscope $end
$scope module sll_20 $end
$var wire 1 o# DATA1 $end
$var wire 1 p# DATA1_wire $end
$var wire 1 q# DATA2 $end
$var wire 1 r# DATA2_wire $end
$var wire 1 s# Result $end
$var wire 1 t# Select_negate $end
$var wire 1 u# Selection $end
$upscope $end
$scope module sll_21 $end
$var wire 1 v# DATA1 $end
$var wire 1 w# DATA1_wire $end
$var wire 1 x# DATA2 $end
$var wire 1 y# DATA2_wire $end
$var wire 1 z# Result $end
$var wire 1 {# Select_negate $end
$var wire 1 |# Selection $end
$upscope $end
$scope module sll_22 $end
$var wire 1 }# DATA1 $end
$var wire 1 ~# DATA1_wire $end
$var wire 1 !$ DATA2 $end
$var wire 1 "$ DATA2_wire $end
$var wire 1 #$ Result $end
$var wire 1 $$ Select_negate $end
$var wire 1 %$ Selection $end
$upscope $end
$scope module sll_23 $end
$var wire 1 &$ DATA1 $end
$var wire 1 '$ DATA1_wire $end
$var wire 1 ($ DATA2 $end
$var wire 1 )$ DATA2_wire $end
$var wire 1 *$ Result $end
$var wire 1 +$ Select_negate $end
$var wire 1 ,$ Selection $end
$upscope $end
$scope module sll_24 $end
$var wire 1 -$ DATA1 $end
$var wire 1 .$ DATA1_wire $end
$var wire 1 /$ DATA2 $end
$var wire 1 0$ DATA2_wire $end
$var wire 1 1$ Result $end
$var wire 1 2$ Select_negate $end
$var wire 1 3$ Selection $end
$upscope $end
$scope module sll_25 $end
$var wire 1 4$ DATA1 $end
$var wire 1 5$ DATA1_wire $end
$var wire 1 6$ DATA2 $end
$var wire 1 7$ DATA2_wire $end
$var wire 1 8$ Result $end
$var wire 1 9$ Select_negate $end
$var wire 1 :$ Selection $end
$upscope $end
$scope module sll_26 $end
$var wire 1 ;$ DATA1 $end
$var wire 1 <$ DATA1_wire $end
$var wire 1 =$ DATA2 $end
$var wire 1 >$ DATA2_wire $end
$var wire 1 ?$ Result $end
$var wire 1 @$ Select_negate $end
$var wire 1 A$ Selection $end
$upscope $end
$scope module sll_27 $end
$var wire 1 B$ DATA1 $end
$var wire 1 C$ DATA1_wire $end
$var wire 1 D$ DATA2 $end
$var wire 1 E$ DATA2_wire $end
$var wire 1 F$ Result $end
$var wire 1 G$ Select_negate $end
$var wire 1 H$ Selection $end
$upscope $end
$scope module srl_00 $end
$var wire 1 I$ DATA1 $end
$var wire 1 J$ DATA1_wire $end
$var wire 1 K$ DATA2 $end
$var wire 1 L$ DATA2_wire $end
$var wire 1 M$ Result $end
$var wire 1 N$ Select_negate $end
$var wire 1 O$ Selection $end
$upscope $end
$scope module srl_01 $end
$var wire 1 P$ DATA1 $end
$var wire 1 Q$ DATA1_wire $end
$var wire 1 R$ DATA2 $end
$var wire 1 S$ DATA2_wire $end
$var wire 1 T$ Result $end
$var wire 1 U$ Select_negate $end
$var wire 1 V$ Selection $end
$upscope $end
$scope module srl_02 $end
$var wire 1 W$ DATA1 $end
$var wire 1 X$ DATA1_wire $end
$var wire 1 Y$ DATA2 $end
$var wire 1 Z$ DATA2_wire $end
$var wire 1 [$ Result $end
$var wire 1 \$ Select_negate $end
$var wire 1 ]$ Selection $end
$upscope $end
$scope module srl_03 $end
$var wire 1 ^$ DATA1 $end
$var wire 1 _$ DATA1_wire $end
$var wire 1 `$ DATA2 $end
$var wire 1 a$ DATA2_wire $end
$var wire 1 b$ Result $end
$var wire 1 c$ Select_negate $end
$var wire 1 d$ Selection $end
$upscope $end
$scope module srl_04 $end
$var wire 1 e$ DATA1 $end
$var wire 1 f$ DATA1_wire $end
$var wire 1 g$ DATA2 $end
$var wire 1 h$ DATA2_wire $end
$var wire 1 i$ Result $end
$var wire 1 j$ Select_negate $end
$var wire 1 k$ Selection $end
$upscope $end
$scope module srl_05 $end
$var wire 1 l$ DATA1 $end
$var wire 1 m$ DATA1_wire $end
$var wire 1 n$ DATA2 $end
$var wire 1 o$ DATA2_wire $end
$var wire 1 p$ Result $end
$var wire 1 q$ Select_negate $end
$var wire 1 r$ Selection $end
$upscope $end
$scope module srl_06 $end
$var wire 1 s$ DATA1 $end
$var wire 1 t$ DATA1_wire $end
$var wire 1 u$ DATA2 $end
$var wire 1 v$ DATA2_wire $end
$var wire 1 w$ Result $end
$var wire 1 x$ Select_negate $end
$var wire 1 y$ Selection $end
$upscope $end
$scope module srl_07 $end
$var wire 1 z$ DATA1 $end
$var wire 1 {$ DATA1_wire $end
$var wire 1 |$ DATA2 $end
$var wire 1 }$ DATA2_wire $end
$var wire 1 ~$ Result $end
$var wire 1 !% Select_negate $end
$var wire 1 "% Selection $end
$upscope $end
$scope module srl_10 $end
$var wire 1 #% DATA1 $end
$var wire 1 $% DATA1_wire $end
$var wire 1 %% DATA2 $end
$var wire 1 &% DATA2_wire $end
$var wire 1 '% Result $end
$var wire 1 (% Select_negate $end
$var wire 1 )% Selection $end
$upscope $end
$scope module srl_11 $end
$var wire 1 *% DATA1 $end
$var wire 1 +% DATA1_wire $end
$var wire 1 ,% DATA2 $end
$var wire 1 -% DATA2_wire $end
$var wire 1 .% Result $end
$var wire 1 /% Select_negate $end
$var wire 1 0% Selection $end
$upscope $end
$scope module srl_12 $end
$var wire 1 1% DATA1 $end
$var wire 1 2% DATA1_wire $end
$var wire 1 3% DATA2 $end
$var wire 1 4% DATA2_wire $end
$var wire 1 5% Result $end
$var wire 1 6% Select_negate $end
$var wire 1 7% Selection $end
$upscope $end
$scope module srl_13 $end
$var wire 1 8% DATA1 $end
$var wire 1 9% DATA1_wire $end
$var wire 1 :% DATA2 $end
$var wire 1 ;% DATA2_wire $end
$var wire 1 <% Result $end
$var wire 1 =% Select_negate $end
$var wire 1 >% Selection $end
$upscope $end
$scope module srl_14 $end
$var wire 1 ?% DATA1 $end
$var wire 1 @% DATA1_wire $end
$var wire 1 A% DATA2 $end
$var wire 1 B% DATA2_wire $end
$var wire 1 C% Result $end
$var wire 1 D% Select_negate $end
$var wire 1 E% Selection $end
$upscope $end
$scope module srl_15 $end
$var wire 1 F% DATA1 $end
$var wire 1 G% DATA1_wire $end
$var wire 1 H% DATA2 $end
$var wire 1 I% DATA2_wire $end
$var wire 1 J% Result $end
$var wire 1 K% Select_negate $end
$var wire 1 L% Selection $end
$upscope $end
$scope module srl_16 $end
$var wire 1 M% DATA1 $end
$var wire 1 N% DATA1_wire $end
$var wire 1 O% DATA2 $end
$var wire 1 P% DATA2_wire $end
$var wire 1 Q% Result $end
$var wire 1 R% Select_negate $end
$var wire 1 S% Selection $end
$upscope $end
$scope module srl_17 $end
$var wire 1 T% DATA1 $end
$var wire 1 U% DATA1_wire $end
$var wire 1 V% DATA2 $end
$var wire 1 W% DATA2_wire $end
$var wire 1 X% Result $end
$var wire 1 Y% Select_negate $end
$var wire 1 Z% Selection $end
$upscope $end
$scope module srl_20 $end
$var wire 1 [% DATA1 $end
$var wire 1 \% DATA1_wire $end
$var wire 1 ]% DATA2 $end
$var wire 1 ^% DATA2_wire $end
$var wire 1 _% Result $end
$var wire 1 `% Select_negate $end
$var wire 1 a% Selection $end
$upscope $end
$scope module srl_21 $end
$var wire 1 b% DATA1 $end
$var wire 1 c% DATA1_wire $end
$var wire 1 d% DATA2 $end
$var wire 1 e% DATA2_wire $end
$var wire 1 f% Result $end
$var wire 1 g% Select_negate $end
$var wire 1 h% Selection $end
$upscope $end
$scope module srl_22 $end
$var wire 1 i% DATA1 $end
$var wire 1 j% DATA1_wire $end
$var wire 1 k% DATA2 $end
$var wire 1 l% DATA2_wire $end
$var wire 1 m% Result $end
$var wire 1 n% Select_negate $end
$var wire 1 o% Selection $end
$upscope $end
$scope module srl_23 $end
$var wire 1 p% DATA1 $end
$var wire 1 q% DATA1_wire $end
$var wire 1 r% DATA2 $end
$var wire 1 s% DATA2_wire $end
$var wire 1 t% Result $end
$var wire 1 u% Select_negate $end
$var wire 1 v% Selection $end
$upscope $end
$scope module srl_24 $end
$var wire 1 w% DATA1 $end
$var wire 1 x% DATA1_wire $end
$var wire 1 y% DATA2 $end
$var wire 1 z% DATA2_wire $end
$var wire 1 {% Result $end
$var wire 1 |% Select_negate $end
$var wire 1 }% Selection $end
$upscope $end
$scope module srl_25 $end
$var wire 1 ~% DATA1 $end
$var wire 1 !& DATA1_wire $end
$var wire 1 "& DATA2 $end
$var wire 1 #& DATA2_wire $end
$var wire 1 $& Result $end
$var wire 1 %& Select_negate $end
$var wire 1 && Selection $end
$upscope $end
$scope module srl_26 $end
$var wire 1 '& DATA1 $end
$var wire 1 (& DATA1_wire $end
$var wire 1 )& DATA2 $end
$var wire 1 *& DATA2_wire $end
$var wire 1 +& Result $end
$var wire 1 ,& Select_negate $end
$var wire 1 -& Selection $end
$upscope $end
$scope module srl_27 $end
$var wire 1 .& DATA1 $end
$var wire 1 /& DATA1_wire $end
$var wire 1 0& DATA2 $end
$var wire 1 1& DATA2_wire $end
$var wire 1 2& Result $end
$var wire 1 3& Select_negate $end
$var wire 1 4& Selection $end
$upscope $end
$upscope $end
$upscope $end
$scope module my_Control_Unit $end
$var wire 1 2 BUSYWAIT $end
$var wire 8 5& OPCODE [7:0] $end
$var wire 1 1 INSTRMEM_BUSYWAIT $end
$var reg 3 6& ALUOP [2:0] $end
$var reg 1 e ALUShift $end
$var reg 1 a MEM_MUX_SELECT $end
$var reg 1 ` MUX1_select $end
$var reg 1 _ MUX2_select $end
$var reg 3 7& PC_select [2:0] $end
$var reg 1 . READ $end
$var reg 1 , WRITE $end
$var reg 1 S WRITEENABLE $end
$upscope $end
$scope module my_PC_getTarget $end
$var wire 32 8& PC [31:0] $end
$var wire 3 9& PC_select [2:0] $end
$var wire 8 :& offset [7:0] $end
$var wire 1 1 INSTRMEM_BUSYWAIT $end
$var reg 32 ;& PC_target [31:0] $end
$var reg 32 <& PC_val [31:0] $end
$var reg 32 =& temp [31:0] $end
$upscope $end
$scope module my_PC_next_select $end
$var wire 32 >& PC [31:0] $end
$var wire 3 ?& PC_select [2:0] $end
$var wire 32 @& PC_target [31:0] $end
$var wire 32 A& PC_val [31:0] $end
$var wire 1 Q ZERO $end
$var reg 32 B& PC_next [31:0] $end
$upscope $end
$scope module my_TWOS_Comp $end
$var wire 8 C& REGOUT2_2scomp [7:0] $end
$var wire 8 D& REGOUT2 [7:0] $end
$upscope $end
$scope module my_mux1 $end
$var wire 8 E& INPUT2 [7:0] $end
$var wire 1 ` SELECT $end
$var wire 8 F& INPUT1 [7:0] $end
$var reg 8 G& OUTPUT [7:0] $end
$upscope $end
$scope module my_mux2 $end
$var wire 8 H& INPUT1 [7:0] $end
$var wire 8 I& INPUT2 [7:0] $end
$var wire 1 _ SELECT $end
$var reg 8 J& OUTPUT [7:0] $end
$upscope $end
$scope module my_reg $end
$var wire 1 4 CLK $end
$var wire 8 K& IN [7:0] $end
$var wire 3 L& INADDRESS [2:0] $end
$var wire 3 M& OUT1ADDRESS [2:0] $end
$var wire 3 N& OUT2ADDRESS [2:0] $end
$var wire 1 5 RESET $end
$var wire 1 S WRITE $end
$var reg 8 O& OUT1 [7:0] $end
$var reg 8 P& OUT2 [7:0] $end
$upscope $end
$upscope $end
$scope module myinstrcache $end
$var wire 10 Q& address [9:0] $end
$var wire 1 4 clk $end
$var wire 1 5 reset $end
$var wire 1 R& valid_bit $end
$var wire 3 S& tag [2:0] $end
$var wire 128 T& mem_readdata [127:0] $end
$var wire 1 * mem_busywait $end
$var wire 3 U& index [2:0] $end
$var wire 1 V& hit $end
$var reg 1 1 busywait $end
$var reg 6 W& mem_address [5:0] $end
$var reg 1 ( mem_read $end
$var reg 1 X& next_state $end
$var reg 32 Y& readdata [31:0] $end
$var reg 1 Z& state $end
$var reg 32 [& word_selector [31:0] $end
$var integer 32 \& i [31:0] $end
$upscope $end
$scope module myinstruction_memory $end
$var wire 6 ]& address [5:0] $end
$var wire 1 4 clock $end
$var wire 1 ( read $end
$var reg 1 * busywait $end
$var reg 1 ^& readaccess $end
$var reg 128 _& readinst [127:0] $end
$upscope $end
$upscope $end
$enddefinitions $end
#0
$dumpvars
bx _&
0^&
bx ]&
b1000 \&
bx [&
0Z&
bx Y&
0X&
bx W&
xV&
bx U&
bx T&
bx S&
xR&
bx Q&
bx P&
bx O&
bx N&
bx M&
bx L&
bx K&
bx J&
bx I&
bx H&
bx G&
bx F&
bx E&
bx D&
bx C&
bx B&
bx A&
bx @&
bx ?&
bx >&
bx =&
bx <&
bx ;&
bx :&
bx 9&
bx 8&
bx 7&
bx 6&
bx 5&
x4&
x3&
x2&
01&
00&
x/&
x.&
x-&
x,&
x+&
0*&
0)&
x(&
x'&
x&&
x%&
x$&
x#&
x"&
x!&
x~%
x}%
x|%
x{%
xz%
xy%
xx%
xw%
xv%
xu%
xt%
xs%
xr%
xq%
xp%
xo%
xn%
xm%
xl%
xk%
xj%
xi%
xh%
xg%
xf%
xe%
xd%
xc%
xb%
xa%
x`%
x_%
x^%
x]%
x\%
x[%
xZ%
xY%
xX%
0W%
0V%
xU%
xT%
xS%
xR%
xQ%
0P%
0O%
xN%
xM%
xL%
xK%
xJ%
0I%
0H%
xG%
xF%
xE%
xD%
xC%
0B%
0A%
x@%
x?%
x>%
x=%
x<%
x;%
x:%
x9%
x8%
x7%
x6%
x5%
x4%
x3%
x2%
x1%
x0%
x/%
x.%
x-%
x,%
x+%
x*%
x)%
x(%
x'%
x&%
x%%
x$%
x#%
x"%
x!%
x~$
0}$
0|$
x{$
xz$
xy$
xx$
xw$
xv$
xu$
xt$
xs$
xr$
xq$
xp$
xo$
xn$
xm$
xl$
xk$
xj$
xi$
xh$
xg$
xf$
xe$
xd$
xc$
xb$
xa$
x`$
x_$
x^$
x]$
x\$
x[$
xZ$
xY$
xX$
xW$
xV$
xU$
xT$
xS$
xR$
xQ$
xP$
xO$
xN$
xM$
xL$
xK$
xJ$
xI$
xH$
xG$
xF$
xE$
xD$
xC$
xB$
xA$
x@$
x?$
x>$
x=$
x<$
x;$
x:$
x9$
x8$
x7$
x6$
x5$
x4$
x3$
x2$
x1$
x0$
x/$
x.$
x-$
x,$
x+$
x*$
x)$
x($
x'$
x&$
x%$
x$$
x#$
x"$
x!$
x~#
x}#
x|#
x{#
xz#
0y#
0x#
xw#
xv#
xu#
xt#
xs#
0r#
0q#
xp#
xo#
xn#
xm#
xl#
xk#
xj#
xi#
xh#
xg#
xf#
xe#
xd#
xc#
xb#
xa#
x`#
x_#
x^#
x]#
x\#
x[#
xZ#
xY#
xX#
xW#
xV#
xU#
xT#
xS#
xR#
xQ#
xP#
0O#
0N#
xM#
xL#
xK#
xJ#
xI#
0H#
0G#
xF#
xE#
xD#
xC#
xB#
0A#
0@#
x?#
x>#
x=#
x<#
x;#
0:#
09#
x8#
x7#
x6#
x5#
x4#
x3#
x2#
x1#
x0#
x/#
x.#
x-#
x,#
x+#
x*#
x)#
x(#
x'#
x&#
x%#
x$#
x##
x"#
x!#
x~"
x}"
x|"
x{"
xz"
xy"
xx"
xw"
xv"
xu"
xt"
xs"
xr"
xq"
xp"
xo"
xn"
xm"
xl"
xk"
xj"
xi"
xh"
xg"
xf"
xe"
xd"
xc"
xb"
xa"
0`"
0_"
x^"
x]"
x\"
x["
xZ"
xY"
xX"
xW"
xV"
xU"
xT"
xS"
xR"
xQ"
xP"
xO"
xN"
xM"
xL"
xK"
xJ"
xI"
xH"
xG"
xF"
xE"
xD"
xC"
xB"
xA"
x@"
x?"
x>"
x="
x<"
x;"
x:"
x9"
x8"
x7"
x6"
x5"
x4"
x3"
x2"
x1"
x0"
x/"
x."
x-"
bx ,"
bx +"
bx *"
bx )"
bx ("
bx '"
bx &"
bx %"
bx $"
bx #"
bx ""
bx !"
bx ~
bx }
bx |
bx {
bx z
bx y
bx x
bx w
bx v
bx u
bx t
bx s
bx r
bx q
bx p
bx o
bx n
bx m
bx l
bx k
bx j
bx i
bx h
bx g
bx f
xe
bx d
bx c
bx b
xa
x`
x_
bx ^
bx ]
bx \
bx [
bx Z
bx Y
bx X
bx W
bx V
bx U
bx T
xS
bx R
xQ
bx P
bx O
bx N
bx M
bx L
bx K
b100000000 J
0I
bx H
0G
bx F
bx E
b1000 D
bx C
b0 B
bx A
b0 @
bx ?
bx >
bx =
x<
x;
bx :
bx 9
bx 8
x7
bx 6
15
04
bx 3
02
01
bx 0
bx /
x.
bx -
x,
bx +
0*
bx )
0(
bx '
0&
0%
bx $
bx #
0"
bx !
$end
#10
1\"
0Z"
1V"
0T"
1P"
0N"
1J"
0H"
1D"
0B"
1>"
0<"
18"
06"
12"
00"
0,
0.
0e
b0 [
b0 7&
b0 9&
b0 ?&
0S
#40
b1000 \&
b1000 D
14
#50
b0 Q&
b0 /
b0 ]
b0 l
b0 8&
b0 >&
#60
b100 \
b100 k
b100 B&
0R&
b0 U&
b100 Y
b100 <&
b100 A&
#69
b0 \
b0 k
b0 B&
b100 [
b100 7&
b100 9&
b100 ?&
11
1X&
0V&
#79
b0 Y
b0 <&
b0 A&
#80
04
#100
1^&
1*
b0 )
b0 W&
b0 ]&
1(
1X&
1Z&
05
#120
14
#160
04
#200
14
#240
04
#280
14
#320
04
#360
14
#400
04
#440
14
#480
04
#520
14
bx00011001 #
bx00011001 T&
bx00011001 _&
#560
04
#600
14
#640
04
#680
14
#720
04
#760
14
#800
04
#840
14
#880
04
#920
14
bx0000000000011001 #
bx0000000000011001 T&
bx0000000000011001 _&
#960
04
#1000
14
#1040
04
#1080
14
#1120
04
#1160
14
#1200
04
#1240
14
#1280
04
#1320
14
bx000001000000000000011001 #
bx000001000000000000011001 T&
bx000001000000000000011001 _&
#1360
04
#1400
14
#1440
04
#1480
14
#1520
04
#1560
14
#1600
04
