group05_lab06_part01/part1/data_memory_wavedata.vcd
$date
	Mon Feb 21 23:33:08 2022
$end
$version
	Icarus Verilog
$end
$timescale
	1s
$end
$scope module data_memory_tb $end
$var wire 8 ! writedata [7:0] $end
$var wire 1 " write $end
$var wire 8 # readdata [7:0] $end
$var wire 1 $ read $end
$var wire 1 % busywait $end
$var wire 8 & address [7:0] $end
$var wire 32 ' PC [31:0] $end
$var reg 1 ( CLK $end
$var reg 32 ) INSTRUCTION [31:0] $end
$var reg 1 * RESET $end
$scope module my_data_memory $end
$var wire 1 ( clock $end
$var wire 1 * reset $end
$var wire 8 + writedata [7:0] $end
$var wire 1 " write $end
$var wire 1 $ read $end
$var wire 8 , address [7:0] $end
$var reg 1 % busywait $end
$var reg 1 - readaccess $end
$var reg 8 . readdata [7:0] $end
$var reg 1 / writeaccess $end
$var integer 32 0 i [31:0] $end
$upscope $end
$scope module mycpu $end
$var wire 1 ( CLK $end
$var wire 32 1 INSTRUCTION [31:0] $end
$var wire 1 * RESET $end
$var wire 8 2 address [7:0] $end
$var wire 1 % busywait $end
$var wire 8 3 read_data [7:0] $end
$var wire 8 4 write_data [7:0] $end
$var wire 1 " write $end
$var wire 1 $ read $end
$var wire 8 5 offset [7:0] $end
$var wire 8 6 mux3_OUTPUT [7:0] $end
$var wire 8 7 mux2_OUTPUT [7:0] $end
$var wire 8 8 mux1_OUTPUT [7:0] $end
$var wire 1 9 ZERO $end
$var wire 3 : WRITEREG [2:0] $end
$var wire 1 ; WRITEENABLE $end
$var wire 8 < REGOUT2_2scomp [7:0] $end
$var wire 8 = REGOUT2 [7:0] $end
$var wire 8 > REGOUT1 [7:0] $end
$var wire 3 ? READREG2 [2:0] $end
$var wire 3 @ READREG1 [2:0] $end
$var wire 32 A PC_val [31:0] $end
$var wire 32 B PC_target [31:0] $end
$var wire 3 C PC_select [2:0] $end
$var wire 32 D PC_next [31:0] $end
$var wire 32 E PC [31:0] $end
$var wire 8 F OPCODE [7:0] $end
$var wire 1 G MUX3_select $end
$var wire 1 H MUX2_select $end
$var wire 1 I MUX1_select $end
$var wire 8 J IMMEDIATE [7:0] $end
$var wire 1 K ALUShift $end
$var wire 8 L ALURESULT [7:0] $end
$var wire 3 M ALUOP [2:0] $end
$scope module myPC $end
$var wire 1 ( CLK $end
$var wire 1 * RESET $end
$var wire 32 N PC_next [31:0] $end
$var reg 32 O PC [31:0] $end
$upscope $end
$scope module my_ALU $end
$var wire 8 P Sll_wire [7:0] $end
$var wire 3 Q SELECT [2:0] $end
$var wire 8 R RESULT [7:0] $end
$var wire 8 S OR_wire [7:0] $end
$var wire 8 T FORWARD_wire [7:0] $end
$var wire 8 U DATA2 [7:0] $end
$var wire 8 V DATA1 [7:0] $end
$var wire 8 W AND_wire [7:0] $end
$var wire 1 K ALUShift $end
$var wire 8 X ADD_wire [7:0] $end
$var reg 1 9 ZERO $end
$scope module f1 $end
$var wire 8 Y RESULT [7:0] $end
$var wire 8 Z DATA2 [7:0] $end
$upscope $end
$scope module f2 $end
$var wire 8 [ RESULT [7:0] $end
$var wire 8 \ DATA2 [7:0] $end
$var wire 8 ] DATA1 [7:0] $end
$upscope $end
$scope module f3 $end
$var wire 8 ^ RESULT [7:0] $end
$var wire 8 _ DATA2 [7:0] $end
$var wire 8 ` DATA1 [7:0] $end
$upscope $end
$scope module f4 $end
$var wire 8 a RESULT [7:0] $end
$var wire 8 b DATA2 [7:0] $end
$var wire 8 c DATA1 [7:0] $end
$upscope $end
$scope module f5 $end
$var wire 8 d srl_wire [7:0] $end
$var wire 8 e sll_wire [7:0] $end
$var wire 8 f Shift_Amount [7:0] $end
$var wire 1 K SelectOP $end
$var wire 8 g Result [7:0] $end
$var wire 8 h OPsrl2 [7:0] $end
$var wire 8 i OPsrl1 [7:0] $end
$var wire 8 j OPsll2 [7:0] $end
$var wire 8 k OPsll1 [7:0] $end
$var wire 8 l In [7:0] $end
$var reg 8 m allResult [7:0] $end
$scope module choosing_00 $end
$var wire 1 n DATA1 $end
$var wire 1 o DATA1_wire $end
$var wire 1 p DATA2 $end
$var wire 1 q DATA2_wire $end
$var wire 1 r Result $end
$var wire 1 s Select_negate $end
$var wire 1 K Selection $end
$upscope $end
$scope module choosing_01 $end
$var wire 1 t DATA1 $end
$var wire 1 u DATA1_wire $end
$var wire 1 v DATA2 $end
$var wire 1 w DATA2_wire $end
$var wire 1 x Result $end
$var wire 1 y Select_negate $end
$var wire 1 K Selection $end
$upscope $end
$scope module choosing_02 $end
$var wire 1 z DATA1 $end
$var wire 1 { DATA1_wire $end
$var wire 1 | DATA2 $end
$var wire 1 } DATA2_wire $end
$var wire 1 ~ Result $end
$var wire 1 !" Select_negate $end
$var wire 1 K Selection $end
$upscope $end
$scope module choosing_03 $end
$var wire 1 "" DATA1 $end
$var wire 1 #" DATA1_wire $end
$var wire 1 $" DATA2 $end
$var wire 1 %" DATA2_wire $end
$var wire 1 &" Result $end
$var wire 1 '" Select_negate $end
$var wire 1 K Selection $end
$upscope $end
$scope module choosing_04 $end
$var wire 1 (" DATA1 $end
$var wire 1 )" DATA1_wire $end
$var wire 1 *" DATA2 $end
$var wire 1 +" DATA2_wire $end
$var wire 1 ," Result $end
$var wire 1 -" Select_negate $end
$var wire 1 K Selection $end
$upscope $end
$scope module choosing_05 $end
$var wire 1 ." DATA1 $end
$var wire 1 /" DATA1_wire $end
$var wire 1 0" DATA2 $end
$var wire 1 1" DATA2_wire $end
$var wire 1 2" Result $end
$var wire 1 3" Select_negate $end
$var wire 1 K Selection $end
$upscope $end
$scope module choosing_06 $end
$var wire 1 4" DATA1 $end
$var wire 1 5" DATA1_wire $end
$var wire 1 6" DATA2 $end
$var wire 1 7" DATA2_wire $end
$var wire 1 8" Result $end
$var wire 1 9" Select_negate $end
$var wire 1 K Selection $end
$upscope $end
$scope module choosing_07 $end
$var wire 1 :" DATA1 $end
$var wire 1 ;" DATA1_wire $end
$var wire 1 <" DATA2 $end
$var wire 1 =" DATA2_wire $end
$var wire 1 >" Result $end
$var wire 1 ?" Select_negate $end
$var wire 1 K Selection $end
$upscope $end
$scope module sll_00 $end
$var wire 1 @" DATA1 $end
$var wire 1 A" DATA1_wire $end
$var wire 1 B" DATA2 $end
$var wire 1 C" DATA2_wire $end
$var wire 1 D" Result $end
$var wire 1 E" Select_negate $end
$var wire 1 F" Selection $end
$upscope $end
$scope module sll_01 $end
$var wire 1 G" DATA1 $end
$var wire 1 H" DATA1_wire $end
$var wire 1 I" DATA2 $end
$var wire 1 J" DATA2_wire $end
$var wire 1 K" Result $end
$var wire 1 L" Select_negate $end
$var wire 1 M" Selection $end
$upscope $end
$scope module sll_02 $end
$var wire 1 N" DATA1 $end
$var wire 1 O" DATA1_wire $end
$var wire 1 P" DATA2 $end
$var wire 1 Q" DATA2_wire $end
$var wire 1 R" Result $end
$var wire 1 S" Select_negate $end
$var wire 1 T" Selection $end
$upscope $end
$scope module sll_03 $end
$var wire 1 U" DATA1 $end
$var wire 1 V" DATA1_wire $end
$var wire 1 W" DATA2 $end
$var wire 1 X" DATA2_wire $end
$var wire 1 Y" Result $end
$var wire 1 Z" Select_negate $end
$var wire 1 [" Selection $end
$upscope $end
$scope module sll_04 $end
$var wire 1 \" DATA1 $end
$var wire 1 ]" DATA1_wire $end
$var wire 1 ^" DATA2 $end
$var wire 1 _" DATA2_wire $end
$var wire 1 `" Result $end
$var wire 1 a" Select_negate $end
$var wire 1 b" Selection $end
$upscope $end
$scope module sll_05 $end
$var wire 1 c" DATA1 $end
$var wire 1 d" DATA1_wire $end
$var wire 1 e" DATA2 $end
$var wire 1 f" DATA2_wire $end
$var wire 1 g" Result $end
$var wire 1 h" Select_negate $end
$var wire 1 i" Selection $end
$upscope $end
$scope module sll_06 $end
$var wire 1 j" DATA1 $end
$var wire 1 k" DATA1_wire $end
$var wire 1 l" DATA2 $end
$var wire 1 m" DATA2_wire $end
$var wire 1 n" Result $end
$var wire 1 o" Select_negate $end
$var wire 1 p" Selection $end
$upscope $end
$scope module sll_07 $end
$var wire 1 q" DATA1 $end
$var wire 1 r" DATA1_wire $end
$var wire 1 s" DATA2 $end
$var wire 1 t" DATA2_wire $end
$var wire 1 u" Result $end
$var wire 1 v" Select_negate $end
$var wire 1 w" Selection $end
$upscope $end
$scope module sll_10 $end
$var wire 1 x" DATA1 $end
$var wire 1 y" DATA1_wire $end
$var wire 1 z" DATA2 $end
$var wire 1 {" DATA2_wire $end
$var wire 1 |" Result $end
$var wire 1 }" Select_negate $end
$var wire 1 ~" Selection $end
$upscope $end
$scope module sll_11 $end
$var wire 1 !# DATA1 $end
$var wire 1 "# DATA1_wire $end
$var wire 1 ## DATA2 $end
$var wire 1 $# DATA2_wire $end
$var wire 1 %# Result $end
$var wire 1 &# Select_negate $end
$var wire 1 '# Selection $end
$upscope $end
$scope module sll_12 $end
$var wire 1 (# DATA1 $end
$var wire 1 )# DATA1_wire $end
$var wire 1 *# DATA2 $end
$var wire 1 +# DATA2_wire $end
$var wire 1 ,# Result $end
$var wire 1 -# Select_negate $end
$var wire 1 .# Selection $end
$upscope $end
$scope module sll_13 $end
$var wire 1 /# DATA1 $end
$var wire 1 0# DATA1_wire $end
$var wire 1 1# DATA2 $end
$var wire 1 2# DATA2_wire $end
$var wire 1 3# Result $end
$var wire 1 4# Select_negate $end
$var wire 1 5# Selection $end
$upscope $end
$scope module sll_14 $end
$var wire 1 6# DATA1 $end
$var wire 1 7# DATA1_wire $end
$var wire 1 8# DATA2 $end
$var wire 1 9# DATA2_wire $end
$var wire 1 :# Result $end
$var wire 1 ;# Select_negate $end
$var wire 1 <# Selection $end
$upscope $end
$scope module sll_15 $end
$var wire 1 =# DATA1 $end
$var wire 1 ># DATA1_wire $end
$var wire 1 ?# DATA2 $end
$var wire 1 @# DATA2_wire $end
$var wire 1 A# Result $end
$var wire 1 B# Select_negate $end
$var wire 1 C# Selection $end
$upscope $end
$scope module sll_16 $end
$var wire 1 D# DATA1 $end
$var wire 1 E# DATA1_wire $end
$var wire 1 F# DATA2 $end
$var wire 1 G# DATA2_wire $end
$var wire 1 H# Result $end
$var wire 1 I# Select_negate $end
$var wire 1 J# Selection $end
$upscope $end
$scope module sll_17 $end
$var wire 1 K# DATA1 $end
$var wire 1 L# DATA1_wire $end
$var wire 1 M# DATA2 $end
$var wire 1 N# DATA2_wire $end
$var wire 1 O# Result $end
$var wire 1 P# Select_negate $end
$var wire 1 Q# Selection $end
$upscope $end
$scope module sll_20 $end
$var wire 1 R# DATA1 $end
$var wire 1 S# DATA1_wire $end
$var wire 1 T# DATA2 $end
$var wire 1 U# DATA2_wire $end
$var wire 1 V# Result $end
$var wire 1 W# Select_negate $end
$var wire 1 X# Selection $end
$upscope $end
$scope module sll_21 $end
$var wire 1 Y# DATA1 $end
$var wire 1 Z# DATA1_wire $end
$var wire 1 [# DATA2 $end
$var wire 1 \# DATA2_wire $end
$var wire 1 ]# Result $end
$var wire 1 ^# Select_negate $end
$var wire 1 _# Selection $end
$upscope $end
$scope module sll_22 $end
$var wire 1 `# DATA1 $end
$var wire 1 a# DATA1_wire $end
$var wire 1 b# DATA2 $end
$var wire 1 c# DATA2_wire $end
$var wire 1 d# Result $end
$var wire 1 e# Select_negate $end
$var wire 1 f# Selection $end
$upscope $end
$scope module sll_23 $end
$var wire 1 g# DATA1 $end
$var wire 1 h# DATA1_wire $end
$var wire 1 i# DATA2 $end
$var wire 1 j# DATA2_wire $end
$var wire 1 k# Result $end
$var wire 1 l# Select_negate $end
$var wire 1 m# Selection $end
$upscope $end
$scope module sll_24 $end
$var wire 1 n# DATA1 $end
$var wire 1 o# DATA1_wire $end
$var wire 1 p# DATA2 $end
$var wire 1 q# DATA2_wire $end
$var wire 1 r# Result $end
$var wire 1 s# Select_negate $end
$var wire 1 t# Selection $end
$upscope $end
$scope module sll_25 $end
$var wire 1 u# DATA1 $end
$var wire 1 v# DATA1_wire $end
$var wire 1 w# DATA2 $end
$var wire 1 x# DATA2_wire $end
$var wire 1 y# Result $end
$var wire 1 z# Select_negate $end
$var wire 1 {# Selection $end
$upscope $end
$scope module sll_26 $end
$var wire 1 |# DATA1 $end
$var wire 1 }# DATA1_wire $end
$var wire 1 ~# DATA2 $end
$var wire 1 !$ DATA2_wire $end
$var wire 1 "$ Result $end
$var wire 1 #$ Select_negate $end
$var wire 1 $$ Selection $end
$upscope $end
$scope module sll_27 $end
$var wire 1 %$ DATA1 $end
$var wire 1 &$ DATA1_wire $end
$var wire 1 '$ DATA2 $end
$var wire 1 ($ DATA2_wire $end
$var wire 1 )$ Result $end
$var wire 1 *$ Select_negate $end
$var wire 1 +$ Selection $end
$upscope $end
$scope module srl_00 $end
$var wire 1 ,$ DATA1 $end
$var wire 1 -$ DATA1_wire $end
$var wire 1 .$ DATA2 $end
$var wire 1 /$ DATA2_wire $end
$var wire 1 0$ Result $end
$var wire 1 1$ Select_negate $end
$var wire 1 2$ Selection $end
$upscope $end
$scope module srl_01 $end
$var wire 1 3$ DATA1 $end
$var wire 1 4$ DATA1_wire $end
$var wire 1 5$ DATA2 $end
$var wire 1 6$ DATA2_wire $end
$var wire 1 7$ Result $end
$var wire 1 8$ Select_negate $end
$var wire 1 9$ Selection $end
$upscope $end
$scope module srl_02 $end
$var wire 1 :$ DATA1 $end
$var wire 1 ;$ DATA1_wire $end
$var wire 1 <$ DATA2 $end
$var wire 1 =$ DATA2_wire $end
$var wire 1 >$ Result $end
$var wire 1 ?$ Select_negate $end
$var wire 1 @$ Selection $end
$upscope $end
$scope module srl_03 $end
$var wire 1 A$ DATA1 $end
$var wire 1 B$ DATA1_wire $end
$var wire 1 C$ DATA2 $end
$var wire 1 D$ DATA2_wire $end
$var wire 1 E$ Result $end
$var wire 1 F$ Select_negate $end
$var wire 1 G$ Selection $end
$upscope $end
$scope module srl_04 $end
$var wire 1 H$ DATA1 $end
$var wire 1 I$ DATA1_wire $end
$var wire 1 J$ DATA2 $end
$var wire 1 K$ DATA2_wire $end
$var wire 1 L$ Result $end
$var wire 1 M$ Select_negate $end
$var wire 1 N$ Selection $end
$upscope $end
$scope module srl_05 $end
$var wire 1 O$ DATA1 $end
$var wire 1 P$ DATA1_wire $end
$var wire 1 Q$ DATA2 $end
$var wire 1 R$ DATA2_wire $end
$var wire 1 S$ Result $end
$var wire 1 T$ Select_negate $end
$var wire 1 U$ Selection $end
$upscope $end
$scope module srl_06 $end
$var wire 1 V$ DATA1 $end
$var wire 1 W$ DATA1_wire $end
$var wire 1 X$ DATA2 $end
$var wire 1 Y$ DATA2_wire $end
$var wire 1 Z$ Result $end
$var wire 1 [$ Select_negate $end
$var wire 1 \$ Selection $end
$upscope $end
$scope module srl_07 $end
$var wire 1 ]$ DATA1 $end
$var wire 1 ^$ DATA1_wire $end
$var wire 1 _$ DATA2 $end
$var wire 1 `$ DATA2_wire $end
$var wire 1 a$ Result $end
$var wire 1 b$ Select_negate $end
$var wire 1 c$ Selection $end
$upscope $end
$scope module srl_10 $end
$var wire 1 d$ DATA1 $end
$var wire 1 e$ DATA1_wire $end
$var wire 1 f$ DATA2 $end
$var wire 1 g$ DATA2_wire $end
$var wire 1 h$ Result $end
$var wire 1 i$ Select_negate $end
$var wire 1 j$ Selection $end
$upscope $end
$scope module srl_11 $end
$var wire 1 k$ DATA1 $end
$var wire 1 l$ DATA1_wire $end
$var wire 1 m$ DATA2 $end
$var wire 1 n$ DATA2_wire $end
$var wire 1 o$ Result $end
$var wire 1 p$ Select_negate $end
$var wire 1 q$ Selection $end
$upscope $end
$scope module srl_12 $end
$var wire 1 r$ DATA1 $end
$var wire 1 s$ DATA1_wire $end
$var wire 1 t$ DATA2 $end
$var wire 1 u$ DATA2_wire $end
$var wire 1 v$ Result $end
$var wire 1 w$ Select_negate $end
$var wire 1 x$ Selection $end
$upscope $end
$scope module srl_13 $end
$var wire 1 y$ DATA1 $end
$var wire 1 z$ DATA1_wire $end
$var wire 1 {$ DATA2 $end
$var wire 1 |$ DATA2_wire $end
$var wire 1 }$ Result $end
$var wire 1 ~$ Select_negate $end
$var wire 1 !% Selection $end
$upscope $end
$scope module srl_14 $end
$var wire 1 "% DATA1 $end
$var wire 1 #% DATA1_wire $end
$var wire 1 $% DATA2 $end
$var wire 1 %% DATA2_wire $end
$var wire 1 &% Result $end
$var wire 1 '% Select_negate $end
$var wire 1 (% Selection $end
$upscope $end
$scope module srl_15 $end
$var wire 1 )% DATA1 $end
$var wire 1 *% DATA1_wire $end
$var wire 1 +% DATA2 $end
$var wire 1 ,% DATA2_wire $end
$var wire 1 -% Result $end
$var wire 1 .% Select_negate $end
$var wire 1 /% Selection $end
$upscope $end
$scope module srl_16 $end
$var wire 1 0% DATA1 $end
$var wire 1 1% DATA1_wire $end
$var wire 1 2% DATA2 $end
$var wire 1 3% DATA2_wire $end
$var wire 1 4% Result $end
$var wire 1 5% Select_negate $end
$var wire 1 6% Selection $end
$upscope $end
$scope module srl_17 $end
$var wire 1 7% DATA1 $end
$var wire 1 8% DATA1_wire $end
$var wire 1 9% DATA2 $end
$var wire 1 :% DATA2_wire $end
$var wire 1 ;% Result $end
$var wire 1 <% Select_negate $end
$var wire 1 =% Selection $end
$upscope $end
$scope module srl_20 $end
$var wire 1 >% DATA1 $end
$var wire 1 ?% DATA1_wire $end
$var wire 1 @% DATA2 $end
$var wire 1 A% DATA2_wire $end
$var wire 1 B% Result $end
$var wire 1 C% Select_negate $end
$var wire 1 D% Selection $end
$upscope $end
$scope module srl_21 $end
$var wire 1 E% DATA1 $end
$var wire 1 F% DATA1_wire $end
$var wire 1 G% DATA2 $end
$var wire 1 H% DATA2_wire $end
$var wire 1 I% Result $end
$var wire 1 J% Select_negate $end
$var wire 1 K% Selection $end
$upscope $end
$scope module srl_22 $end
$var wire 1 L% DATA1 $end
$var wire 1 M% DATA1_wire $end
$var wire 1 N% DATA2 $end
$var wire 1 O% DATA2_wire $end
$var wire 1 P% Result $end
$var wire 1 Q% Select_negate $end
$var wire 1 R% Selection $end
$upscope $end
$scope module srl_23 $end
$var wire 1 S% DATA1 $end
$var wire 1 T% DATA1_wire $end
$var wire 1 U% DATA2 $end
$var wire 1 V% DATA2_wire $end
$var wire 1 W% Result $end
$var wire 1 X% Select_negate $end
$var wire 1 Y% Selection $end
$upscope $end
$scope module srl_24 $end
$var wire 1 Z% DATA1 $end
$var wire 1 [% DATA1_wire $end
$var wire 1 \% DATA2 $end
$var wire 1 ]% DATA2_wire $end
$var wire 1 ^% Result $end
$var wire 1 _% Select_negate $end
$var wire 1 `% Selection $end
$upscope $end
$scope module srl_25 $end
$var wire 1 a% DATA1 $end
$var wire 1 b% DATA1_wire $end
$var wire 1 c% DATA2 $end
$var wire 1 d% DATA2_wire $end
$var wire 1 e% Result $end
$var wire 1 f% Select_negate $end
$var wire 1 g% Selection $end
$upscope $end
$scope module srl_26 $end
$var wire 1 h% DATA1 $end
$var wire 1 i% DATA1_wire $end
$var wire 1 j% DATA2 $end
$var wire 1 k% DATA2_wire $end
$var wire 1 l% Result $end
$var wire 1 m% Select_negate $end
$var wire 1 n% Selection $end
$upscope $end
$scope module srl_27 $end
$var wire 1 o% DATA1 $end
$var wire 1 p% DATA1_wire $end
$var wire 1 q% DATA2 $end
$var wire 1 r% DATA2_wire $end
$var wire 1 s% Result $end
$var wire 1 t% Select_negate $end
$var wire 1 u% Selection $end
$upscope $end
$upscope $end
$upscope $end
$scope module my_Control_Unit $end
$var wire 8 v% OPCODE [7:0] $end
$var wire 1 % busywait $end
$var reg 3 w% ALUOP [2:0] $end
$var reg 1 K ALUShift $end
$var reg 1 I MUX1_select $end
$var reg 1 H MUX2_select $end
$var reg 1 G MUX3_select $end
$var reg 3 x% PC_select [2:0] $end
$var reg 1 ; WRITEENABLE $end
$var reg 1 $ read $end
$var reg 1 " write $end
$upscope $end
$scope module my_PC_getTarget $end
$var wire 32 y% PC [31:0] $end
$var wire 8 z% offset [7:0] $end
$var reg 32 {% PC_target [31:0] $end
$var reg 32 |% PC_val [31:0] $end
$var reg 32 }% temp [31:0] $end
$upscope $end
$scope module my_PC_next_select $end
$var wire 3 ~% PC_select [2:0] $end
$var wire 32 !& PC_target [31:0] $end
$var wire 32 "& PC_val [31:0] $end
$var wire 1 9 ZERO $end
$var reg 32 #& PC_next [31:0] $end
$upscope $end
$scope module my_TWOS_Comp $end
$var wire 8 $& REGOUT2_2scomp [7:0] $end
$var wire 8 %& REGOUT2 [7:0] $end
$upscope $end
$scope module my_mux1 $end
$var wire 8 && INPUT2 [7:0] $end
$var wire 1 I SELECT $end
$var wire 8 '& INPUT1 [7:0] $end
$var reg 8 (& OUTPUT [7:0] $end
$upscope $end
$scope module my_mux2 $end
$var wire 8 )& INPUT1 [7:0] $end
$var wire 8 *& INPUT2 [7:0] $end
$var wire 1 H SELECT $end
$var reg 8 +& OUTPUT [7:0] $end
$upscope $end
$scope module my_mux3 $end
$var wire 8 ,& INPUT1 [7:0] $end
$var wire 8 -& INPUT2 [7:0] $end
$var wire 1 G SELECT $end
$var reg 8 .& OUTPUT [7:0] $end
$upscope $end
$scope module my_reg $end
$var wire 1 ( CLK $end
$var wire 8 /& IN [7:0] $end
$var wire 3 0& INADDRESS [2:0] $end
$var wire 3 1& OUT1ADDRESS [2:0] $end
$var wire 3 2& OUT2ADDRESS [2:0] $end
$var wire 1 * RESET $end
$var wire 1 ; WRITE $end
$var reg 8 3& OUT1 [7:0] $end
$var reg 8 4& OUT2 [7:0] $end
$upscope $end
$upscope $end
$upscope $end
$enddefinitions $end
#0
$dumpvars
bx 4&
bx 3&
bx 2&
bx 1&
bx 0&
bx /&
bx .&
bx -&
bx ,&
bx +&
bx *&
bx )&
bx (&
bx '&
bx &&
bx %&
bx $&
bx #&
bx "&
bx !&
bx ~%
bx }%
bx |%
bx {%
bx z%
bx y%
bx x%
bx w%
bx v%
xu%
xt%
xs%
0r%
0q%
xp%
xo%
xn%
xm%
xl%
0k%
0j%
xi%
xh%
xg%
xf%
xe%
xd%
xc%
xb%
xa%
x`%
x_%
x^%
x]%
x\%
x[%
xZ%
xY%
xX%
xW%
xV%
xU%
xT%
xS%
xR%
xQ%
xP%
xO%
xN%
xM%
xL%
xK%
xJ%
xI%
xH%
xG%
xF%
xE%
xD%
xC%
xB%
xA%
x@%
x?%
x>%
x=%
x<%
x;%
0:%
09%
x8%
x7%
x6%
x5%
x4%
03%
02%
x1%
x0%
x/%
x.%
x-%
0,%
0+%
x*%
x)%
x(%
x'%
x&%
0%%
0$%
x#%
x"%
x!%
x~$
x}$
x|$
x{$
xz$
xy$
xx$
xw$
xv$
xu$
xt$
xs$
xr$
xq$
xp$
xo$
xn$
xm$
xl$
xk$
xj$
xi$
xh$
xg$
xf$
xe$
xd$
xc$
xb$
xa$
0`$
0_$
x^$
x]$
x\$
x[$
xZ$
xY$
xX$
xW$
xV$
xU$
xT$
xS$
xR$
xQ$
xP$
xO$
xN$
xM$
xL$
xK$
xJ$
xI$
xH$
xG$
xF$
xE$
xD$
xC$
xB$
xA$
x@$
x?$
x>$
x=$
x<$
x;$
x:$
x9$
x8$
x7$
x6$
x5$
x4$
x3$
x2$
x1$
x0$
x/$
x.$
x-$
x,$
x+$
x*$
x)$
x($
x'$
x&$
x%$
x$$
x#$
x"$
x!$
x~#
x}#
x|#
x{#
xz#
xy#
xx#
xw#
xv#
xu#
xt#
xs#
xr#
xq#
xp#
xo#
xn#
xm#
xl#
xk#
xj#
xi#
xh#
xg#
xf#
xe#
xd#
xc#
xb#
xa#
x`#
x_#
x^#
x]#
0\#
0[#
xZ#
xY#
xX#
xW#
xV#
0U#
0T#
xS#
xR#
xQ#
xP#
xO#
xN#
xM#
xL#
xK#
xJ#
xI#
xH#
xG#
xF#
xE#
xD#
xC#
xB#
xA#
x@#
x?#
x>#
x=#
x<#
x;#
x:#
x9#
x8#
x7#
x6#
x5#
x4#
x3#
02#
01#
x0#
x/#
x.#
x-#
x,#
0+#
0*#
x)#
x(#
x'#
x&#
x%#
0$#
0##
x"#
x!#
x~"
x}"
x|"
0{"
0z"
xy"
xx"
xw"
xv"
xu"
xt"
xs"
xr"
xq"
xp"
xo"
xn"
xm"
xl"
xk"
xj"
xi"
xh"
xg"
xf"
xe"
xd"
xc"
xb"
xa"
x`"
x_"
x^"
x]"
x\"
x["
xZ"
xY"
xX"
xW"
xV"
xU"
xT"
xS"
xR"
xQ"
xP"
xO"
xN"
xM"
xL"
xK"
xJ"
xI"
xH"
xG"
xF"
xE"
xD"
0C"
0B"
xA"
x@"
x?"
x>"
x="
x<"
x;"
x:"
x9"
x8"
x7"
x6"
x5"
x4"
x3"
x2"
x1"
x0"
x/"
x."
x-"
x,"
x+"
x*"
x)"
x("
x'"
x&"
x%"
x$"
x#"
x""
x!"
x~
x}
x|
x{
xz
xy
xx
xw
xv
xu
xt
xs
xr
xq
xp
xo
xn
bx m
bx l
bx k
bx j
bx i
bx h
bx g
bx f
bx e
bx d
bx c
bx b
bx a
bx `
bx _
bx ^
bx ]
bx \
bx [
bx Z
bx Y
bx X
bx W
bx V
bx U
bx T
bx S
bx R
bx Q
bx P
bx O
bx N
bx M
bx L
xK
bx J
xI
xH
xG
bx F
bx E
bx D
bx C
bx B
bx A
bx @
bx ?
bx >
bx =
bx <
x;
bx :
x9
bx 8
bx 7
bx 6
bx 5
bx 4
bx 3
bx 2
bx 1
bx 0
x/
bx .
x-
bx ,
bx +
0*
bx )
0(
bx '
bx &
x%
x$
bx #
x"
bx !
$end
#1
0/
0-
0%
b100000000 0
1*
#2
1?"
0="
19"
07"
13"
01"
1-"
0+"
1'"
0%"
1!"
0}
1y
0w
1s
0q
0"
0$
0K
b0 C
b0 x%
b0 ~%
0;
#4
1(
#5
b0 '
b0 E
b0 O
b0 y%
#6
b100 D
b100 N
b100 #&
b100 A
b100 |%
b100 "&
#7
b0 }%
b0 F
b0 v%
b0 :
b0 0&
b0 5
b0 z%
b0 @
b0 1&
b101 ?
b101 2&
b101 J
b101 )&
b101 )
b101 1
#8
0x
0~
0&"
0,"
0u
0{
0#"
0)"
0t
0z
0""
0("
0$"
0*"
00"
06"
0K"
0R"
0Y"
0`"
0E$
0L$
0S$
0Z$
0J"
0Q"
0X"
0_"
0D$
0K$
0R$
0Y$
0I"
0@"
0P"
0G"
0W"
0N"
0^"
0U"
0H$
0C$
0O$
0J$
0V$
0Q$
0]$
0X$
bx00000 g
0r
0V#
0]#
0d#
bx0000 j
0k#
0^%
0e%
0l%
b0xxxx h
0s%
0o
0S#
0Z#
0a#
0h#
0[%
0b%
0i%
0p%
0n
0b#
0R#
0i#
0Y#
0p#
0`#
0w#
0g#
0<"
0Z%
0N%
0a%
0U%
0h%
0\%
0o%
0c%
bx00000 e
0D"
0|"
0%#
0,#
bx0000 k
03#
b0xxx d
0a$
0&%
0-%
04%
b0xxxx i
0;%
0A"
0H"
0O"
0V"
0]"
0d"
0k"
0r"
0y"
0"#
0)#
00#
07#
0>#
0E#
0L#
0-$
04$
0;$
0B$
0I$
0P$
0W$
0^$
0e$
0l$
0s$
0z$
0#%
0*%
01%
08%
0E"
0L"
0S"
0Z"
0a"
0h"
0o"
0v"
1W#
1^#
0c#
1e#
0j#
1l#
0q#
1s#
0x#
1z#
0!$
1#$
0($
1*$
0}"
0&#
0-#
04#
0;#
0B#
0I#
0P#
01$
08$
0?$
0F$
0M$
0T$
0[$
0b$
0A%
1C%
0H%
1J%
0O%
1Q%
0V%
1X%
0]%
1_%
0d%
1f%
1m%
1t%
0i$
0p$
0w$
0~$
0'%
0.%
05%
0<%
1F"
1M"
1T"
1["
1b"
1i"
1p"
1w"
0X#
0_#
0f#
0m#
0t#
0{#
0$$
0+$
1~"
1'#
1.#
15#
1<#
1C#
1J#
1Q#
12$
19$
1@$
1G$
1N$
1U$
1\$
1c$
0D%
0K%
0R%
0Y%
0`%
0g%
0n%
0u%
1j$
1q$
1x$
1!%
1(%
1/%
16%
1=%
b101 7
b101 U
b101 Z
b101 \
b101 _
b101 b
b101 f
b101 +&
0G
1H
b0 M
b0 Q
b0 w%
1;
0(
#9
02"
08"
b0 g
0>"
0/"
05"
0;"
0."
04"
0:"
0p
0v
0|
0g"
0n"
b0 e
0u"
00$
07$
b0 d
0>$
0f"
0m"
0t"
0/$
06$
0=$
0e"
0\"
0l"
0c"
0s"
0j"
0q"
0,$
03$
0.$
0:$
05$
0A$
0<$
0r#
0y#
0"$
b0 j
0)$
0B%
0I%
0P%
b0 h
0W%
0o#
0v#
0}#
0&$
0?%
0F%
0M%
0T%
0~#
0n#
0'$
0u#
0|#
0%$
0>%
0E%
0L%
0@%
0S%
0G%
0:#
0A#
0H#
b0 k
0O#
0h$
0o$
0v$
b0 i
0}$
09
09#
0@#
0G#
0N#
0g$
0n$
0u$
0|$
b101 &
b101 ,
b101 2
b101 6
b101 .&
b101 /&
b101 L
b101 R
b101 -&
0x"
0!#
0(#
0/#
08#
06#
0?#
0=#
0F#
0D#
0M#
0K#
0f$
0d$
0m$
0k$
0t$
0r$
0{$
0y$
0"%
0)%
00%
07%
bx00000 P
bx00000 m
bx1x1 S
bx1x1 a
b0x0x W
b0x0x ^
b101 T
b101 Y
b100 B
b100 {%
b100 !&
b0 !
b0 +
b0 4
b0 >
b0 V
b0 ]
b0 `
b0 c
b0 l
b0 3&
b0 =
b0 %&
b0 '&
b0 4&
0*
#10
b0 P
b0 m
b101 S
b101 a
b0 W
b0 ^
b0 <
b0 $&
b0 &&
#11
b101 X
b101 [
#12
1(
#13
b100 '
b100 E
b100 O
b100 y%
#14
b1000 D
b1000 N
b1000 #&
b1000 A
b1000 |%
b1000 "&
